﻿****************************************
*  Punkty: 0000
*
*  Nastepne karty:
*  _________
*  |       |
*  |_______|
*  _________
*  |       |
*  |_______|
*  _________
*  |       |
*  |_______|
*  _________
*  |       |
*  |_______|
*
*  Aktualna karta:
*  _________
*  |       |
*  |_______|
*
*  Nowa karta
*  Zakoncz gre
*
****************************************